…
    #> Loading spatialcluster

``` r
library (spatialcluster)
```

``` r
xy <- matrix (runif (100), ncol = 2)
edges <- scl_edges (xy)
# add some fake data to the edges
edges %<>% dplyr::mutate (d = runif (nrow (.))) %>%
   dplyr::arrange (desc (d))
edges
#> # A tibble: 274 x 3
#>     from    to     d
#>    <int> <int> <dbl>
#>  1    44    39 0.996
#>  2    28    32 0.993
#>  3     1     4 0.989
#>  4    37    34 0.989
#>  5    47    27 0.987
#>  6    17    24 0.980
#>  7    14    43 0.978
#>  8    32    19 0.977
#>  9    18    22 0.974
#> 10    32    28 0.970
#> # ... with 264 more rows
…
